{
  "title": "GOSH Community Projects",
  "description": "Open science hardware projects from the GOSH community",
  "url": "https://projects.openhardware.science/",
  "aboutUrl": "https://openhardware.science",
  "sourceCodeUrl": "https://gitlab.com/gosh-community/gosh-okh-search",
  "remoteLists": [],
  "remoteManifests": [
    "https://raw.githubusercontent.com/CubeFactory2/cubefactory/master/okh-cubefactory.yml",
    "https://raw.githubusercontent.com/amchagas/Flypi/master/okh-flypi.yml",
    "https://raw.githubusercontent.com/BadenLab/Spikeling/master/okh-spikeling.yml",
    "https://raw.githubusercontent.com/BadenLab/Openspritzer/master/okh-openspritzer.yml",
    "https://raw.githubusercontent.com/BadenLab/LED-Zappelin/master/okh-LED-Zappelin.yml",
    "https://raw.githubusercontent.com/BadenLab/Hyperspectral-scanner/master/okh-hyperspectral-scanner.yml",
    "https://raw.githubusercontent.com/eulerlab/open-visual-stimulator/master/okh-open-visual-stimulator.yml",
    "https://gitlab.com/bath_open_instrumentation_group/picamera_cra_compensation/-/raw/master/okh-calibration_jig.yml",
    "https://raw.githubusercontent.com/trendinafrica/actifield/master/okh-actifield.yml",
    "https://raw.githubusercontent.com/FOSH-following-demand/Syringe_Pump/master/okh-syringe-pump.yml",
    "https://raw.githubusercontent.com/FOSH-following-demand/Incubator/master/okh-incubator.yml",
    "https://raw.githubusercontent.com/case06/ZACplus/master/okh-ZACplus.yml",
    "https://gitlab.com/openflexure/openflexure-microscope/-/raw/master/okh.yml",
    "https://gitlab.com/openflexure/openflexure-block-stage/-/raw/master/okh-openflexure-block-stage.yml",
    "https://gitlab.com/openflexure/openflexure-delta-stage/-/raw/master/okh-OpenFlexureDeltaStage.yml",
    "https://gitlab.com/bath_open_instrumentation_group/mech-jiwe/-/raw/master/okh-MechJiwe.yml",
    "https://raw.githubusercontent.com/cool-fosh/OSP/master/okh-OSP.yml",
    "https://raw.githubusercontent.com/cool-fosh/Fermento/master/okh-Fermento.yml",
    "https://raw.githubusercontent.com/cool-fosh/microscope-incubation-box/master/okh-microscope-incubation-box.yml",
    "https://raw.githubusercontent.com/cool-fosh/lightM/master/okh-lightm.yml",
    "https://raw.githubusercontent.com/cool-fosh/test_tube_photometer/master/okh-test-tube-photometer.yml",
    "https://raw.githubusercontent.com/OKH-Forks/poseidon/release/okh-poseidon.yml",
    "https://raw.githubusercontent.com/Sussex-Neuroscience/voltage-amplifier/master/okh-arduino-voltage-amplifier.yml"
  ]
}
