<?xml version="1.0" encoding="UTF-8" standalone="no"?>
<!-- Created with Inkscape (http://www.inkscape.org/) -->

<svg
   width="84.185852mm"
   height="61.994122mm"
   viewBox="0 0 84.185853 61.994122"
   version="1.1"
   id="svg8"
   inkscape:version="1.2.1 (9c6d41e410, 2022-07-14)"
   sodipodi:docname="logo.svg"
   inkscape:export-filename="/home/kaspar/projects/buildsearch/public/favicon.png"
   inkscape:export-xdpi="94.879448"
   inkscape:export-ydpi="94.879448"
   xmlns:inkscape="http://www.inkscape.org/namespaces/inkscape"
   xmlns:sodipodi="http://sodipodi.sourceforge.net/DTD/sodipodi-0.dtd"
   xmlns="http://www.w3.org/2000/svg"
   xmlns:svg="http://www.w3.org/2000/svg"
   xmlns:rdf="http://www.w3.org/1999/02/22-rdf-syntax-ns#"
   xmlns:cc="http://creativecommons.org/ns#"
   xmlns:dc="http://purl.org/dc/elements/1.1/">
  <defs
     id="defs2">
    <inkscape:path-effect
       effect="spiro"
       id="path-effect1091"
       is_visible="true" />
    <inkscape:path-effect
       effect="spiro"
       id="path-effect1071"
       is_visible="true" />
    <inkscape:path-effect
       effect="spiro"
       id="path-effect1091-7"
       is_visible="true" />
  </defs>
  <sodipodi:namedview
     id="base"
     pagecolor="#ffffff"
     bordercolor="#666666"
     borderopacity="1.0"
     inkscape:pageopacity="0.0"
     inkscape:pageshadow="2"
     inkscape:zoom="2.8"
     inkscape:cx="74.285714"
     inkscape:cy="125.71429"
     inkscape:document-units="mm"
     inkscape:current-layer="layer1"
     showgrid="false"
     objecttolerance="1"
     guidetolerance="1"
     fit-margin-top="0"
     fit-margin-left="0"
     fit-margin-right="0"
     fit-margin-bottom="0"
     inkscape:window-width="1920"
     inkscape:window-height="1063"
     inkscape:window-x="0"
     inkscape:window-y="17"
     inkscape:window-maximized="1"
     inkscape:showpageshadow="2"
     inkscape:pagecheckerboard="0"
     inkscape:deskcolor="#d1d1d1" />
  <metadata
     id="metadata5">
    <rdf:RDF>
      <cc:Work
         rdf:about="">
        <dc:format>image/svg+xml</dc:format>
        <dc:type
           rdf:resource="http://purl.org/dc/dcmitype/StillImage" />
        <dc:title />
      </cc:Work>
    </rdf:RDF>
  </metadata>
  <g
     inkscape:label="Layer 1"
     inkscape:groupmode="layer"
     id="layer1"
     transform="translate(4.1444073,-97.461792)"
     style="display:inline">
    <rect
       style="opacity:1;fill:#ffffff;fill-opacity:1;stroke:none;stroke-width:0.85326195;stroke-linecap:square;stroke-linejoin:miter;stroke-miterlimit:4;stroke-dasharray:none;stroke-opacity:0"
       id="rect895"
       width="84.185852"
       height="61.994122"
       x="-4.1444073"
       y="97.461792"
       inkscape:export-xdpi="94.879448"
       inkscape:export-ydpi="94.879448" />
    <g
       id="g1323"
       transform="translate(1.1482319,4.3112069)">
      <g
         style="stroke-width:5.44368"
         transform="matrix(0.15266837,0,0,0.15686908,-3.2154687,81.404889)"
         id="g146-0"
         inkscape:export-filename="/home/kaspar/logo_writing2.png"
         inkscape:export-xdpi="169.33334"
         inkscape:export-ydpi="169.33334">
        <g
           transform="matrix(4.3094127,0,0,4.3094127,-1846.9564,-681.38066)"
           id="g4967-5"
           style="color:#000000;clip-rule:nonzero;display:inline;overflow:visible;visibility:visible;opacity:1;isolation:auto;mix-blend-mode:normal;color-interpolation:sRGB;color-interpolation-filters:linearRGB;solid-color:#000000;solid-opacity:1;fill:#763086;fill-opacity:1;fill-rule:nonzero;stroke-width:5.44368;stroke-linecap:butt;stroke-linejoin:miter;stroke-miterlimit:4;stroke-dasharray:none;stroke-dashoffset:0;stroke-opacity:1;color-rendering:auto;image-rendering:auto;shape-rendering:auto;text-rendering:auto;enable-background:accumulate">
          <path
             d="m 518.11,206.768 c 7.187,15.386 0.541,33.686 -14.842,40.871 -15.385,7.188 -33.684,0.54 -40.871,-14.847 -7.187,-15.382 -0.542,-33.681 14.844,-40.868 15.384,-7.188 33.682,-0.541 40.869,14.844 z"
             id="path4969-7"
             inkscape:connector-curvature="0"
             style="color:#000000;clip-rule:nonzero;display:inline;overflow:visible;visibility:visible;isolation:auto;mix-blend-mode:normal;color-interpolation:sRGB;color-interpolation-filters:linearRGB;solid-color:#000000;solid-opacity:1;fill:#763086;fill-opacity:1;fill-rule:nonzero;stroke-width:5.44368;stroke-linecap:butt;stroke-linejoin:miter;stroke-miterlimit:4;stroke-dasharray:none;stroke-dashoffset:0;stroke-opacity:1;color-rendering:auto;image-rendering:auto;shape-rendering:auto;text-rendering:auto;enable-background:accumulate" />
        </g>
        <g
           transform="matrix(2.1494423,0,0,2.1494423,-730.53106,-97.22835)"
           id="g4195-3"
           style="color:#000000;clip-rule:nonzero;display:inline;overflow:visible;visibility:visible;opacity:1;isolation:auto;mix-blend-mode:normal;color-interpolation:sRGB;color-interpolation-filters:linearRGB;solid-color:#000000;solid-opacity:1;fill:#763086;fill-opacity:1;fill-rule:nonzero;stroke-width:17.8758;stroke-linecap:butt;stroke-linejoin:miter;stroke-miterlimit:4;stroke-dasharray:none;stroke-dashoffset:0;stroke-opacity:1;color-rendering:auto;image-rendering:auto;shape-rendering:auto;text-rendering:auto;enable-background:accumulate">
          <path
             d="m 518.11,206.768 c 7.187,15.386 0.541,33.686 -14.842,40.871 -15.385,7.188 -33.684,0.54 -40.871,-14.847 -7.187,-15.382 -0.542,-33.681 14.844,-40.868 15.384,-7.188 33.682,-0.541 40.869,14.844 z"
             id="path4197-2"
             inkscape:connector-curvature="0"
             style="color:#000000;clip-rule:nonzero;display:inline;overflow:visible;visibility:visible;isolation:auto;mix-blend-mode:normal;color-interpolation:sRGB;color-interpolation-filters:linearRGB;solid-color:#000000;solid-opacity:1;fill:#763086;fill-opacity:1;fill-rule:nonzero;stroke-width:17.8758;stroke-linecap:butt;stroke-linejoin:miter;stroke-miterlimit:4;stroke-dasharray:none;stroke-dashoffset:0;stroke-opacity:1;color-rendering:auto;image-rendering:auto;shape-rendering:auto;text-rendering:auto;enable-background:accumulate" />
        </g>
        <path
           style="fill:#1f4c4e;stroke-width:5.44368"
           d="m 265.74706,265.74871 -19.0918,26.02734 c -0.2414,-0.18162 -0.4764,-0.37065 -0.7129,-0.55859 -0.013,0.0193 -0.026,0.0393 -0.039,0.0586 6.45,4.77177 14.593,7.30991 22.6192,6.52344 7.604,13.73149 16.1999,27.63459 23.1894,41.25977 -17.8821,15.09882 -21.2755,43.86587 -7.3398,62.6875 13.1087,19.41781 41.428,25.8517 61.6191,13.93945 20.801,-11.02621 30.1227,-38.74256 20.2071,-60.09766 -8.6661,-21.05353 -33.9134,-33.08649 -55.7305,-26.63672 -7.5898,-13.2526 -15.1797,-26.50521 -22.7695,-39.75781 6.2231,-5.77543 9.7789,-14.09074 10.1679,-22.5293 -0.021,-0.002 -0.042,-0.004 -0.062,-0.006 -0.01,0.38642 -0.017,0.77229 -0.037,1.15821 l -32.0195,-2.06836 z"
           id="path4971-7"
           inkscape:connector-curvature="0" />
        <path
           style="fill:none;stroke:#8cbd4f;stroke-width:92.5323;stroke-miterlimit:10"
           inkscape:connector-curvature="0"
           id="path5013-2"
           d="M 139.61706,255.00687"
           stroke-miterlimit="10" />
        <g
           transform="matrix(2.1494423,0,0,2.1494423,-913.4057,-216.16523)"
           id="g4187-1"
           style="color:#000000;clip-rule:nonzero;display:inline;overflow:visible;visibility:visible;opacity:1;isolation:auto;mix-blend-mode:normal;color-interpolation:sRGB;color-interpolation-filters:linearRGB;solid-color:#000000;solid-opacity:1;fill:#763086;fill-opacity:1;fill-rule:nonzero;stroke-width:17.8758;stroke-linecap:butt;stroke-linejoin:miter;stroke-miterlimit:4;stroke-dasharray:none;stroke-dashoffset:0;stroke-opacity:1;color-rendering:auto;image-rendering:auto;shape-rendering:auto;text-rendering:auto;enable-background:accumulate">
          <path
             d="m 518.11,206.768 c 7.187,15.386 0.541,33.686 -14.842,40.871 -15.385,7.188 -33.684,0.54 -40.871,-14.847 -7.187,-15.382 -0.542,-33.681 14.844,-40.868 15.384,-7.188 33.682,-0.541 40.869,14.844 z"
             id="path4189-3"
             inkscape:connector-curvature="0"
             style="color:#000000;clip-rule:nonzero;display:inline;overflow:visible;visibility:visible;isolation:auto;mix-blend-mode:normal;color-interpolation:sRGB;color-interpolation-filters:linearRGB;solid-color:#000000;solid-opacity:1;fill:#763086;fill-opacity:1;fill-rule:nonzero;stroke-width:17.8758;stroke-linecap:butt;stroke-linejoin:miter;stroke-miterlimit:4;stroke-dasharray:none;stroke-dashoffset:0;stroke-opacity:1;color-rendering:auto;image-rendering:auto;shape-rendering:auto;text-rendering:auto;enable-background:accumulate" />
        </g>
        <path
           style="fill:#91c054;stroke-width:5.44368"
           d="m 142.00486,209.17644 c -0.7219,-0.0173 -1.4454,-0.0169 -2.1719,0.002 -22.7845,-0.17583 -43.6816,18.38153 -46.2187,41.02148 -3.5345,22.9105 12.4725,46.63512 35.0449,51.92578 22.5422,6.34278 48.29,-7.06626 55.9805,-29.19726 0.1471,-0.4078 0.3296,-1.04152 0.4511,-1.64063 l 14.8497,1.02149 34.8652,2.53125 c 1.9287,6.7756 6.2425,12.71693 11.8496,16.93554 l 19.0918,-26.02734 -15.1191,-28.39844 c -6.5883,3.59017 -11.9887,9.36161 -14.754,16.375 -16.1483,-1.39944 -32.9655,-2.09243 -48.6972,-3.93164 -2.8093,-22.37557 -22.7918,-40.08152 -45.1719,-40.61719 z m 111.3652,26.83203 c -0.7797,0.33748 -1.5428,0.712 -2.2949,1.10743 0.7587,-0.38354 1.53,-0.74097 2.3164,-1.0625 -0.01,-0.015 -0.014,-0.0299 -0.022,-0.0449 z"
           id="path5015-4"
           inkscape:connector-curvature="0" />
        <g
           style="stroke-width:5.44368"
           id="g5017-9"
           transform="translate(-349.88764,36.460807)">
          <path
             style="fill:#ffffff;stroke-width:5.44368"
             inkscape:connector-curvature="0"
             id="path5019-4"
             d="m 518.11,206.768 c 7.187,15.386 0.541,33.686 -14.842,40.871 -15.385,7.188 -33.684,0.54 -40.871,-14.847 -7.187,-15.382 -0.542,-33.681 14.844,-40.868 15.384,-7.188 33.682,-0.541 40.869,14.844 z" />
        </g>
        <g
           id="g4191-1"
           transform="matrix(2.1494423,0,0,2.1494423,-713.55321,-312.21319)"
           style="color:#000000;clip-rule:nonzero;display:inline;overflow:visible;visibility:visible;opacity:1;isolation:auto;mix-blend-mode:normal;color-interpolation:sRGB;color-interpolation-filters:linearRGB;solid-color:#000000;solid-opacity:1;fill:#763086;fill-opacity:1;fill-rule:nonzero;stroke-width:17.8758;stroke-linecap:butt;stroke-linejoin:miter;stroke-miterlimit:4;stroke-dasharray:none;stroke-dashoffset:0;stroke-opacity:1;color-rendering:auto;image-rendering:auto;shape-rendering:auto;text-rendering:auto;enable-background:accumulate">
          <path
             style="color:#000000;clip-rule:nonzero;display:inline;overflow:visible;visibility:visible;isolation:auto;mix-blend-mode:normal;color-interpolation:sRGB;color-interpolation-filters:linearRGB;solid-color:#000000;solid-opacity:1;fill:#763086;fill-opacity:1;fill-rule:nonzero;stroke-width:17.8758;stroke-linecap:butt;stroke-linejoin:miter;stroke-miterlimit:4;stroke-dasharray:none;stroke-dashoffset:0;stroke-opacity:1;color-rendering:auto;image-rendering:auto;shape-rendering:auto;text-rendering:auto;enable-background:accumulate"
             inkscape:connector-curvature="0"
             id="path4193-9"
             d="m 518.11,206.768 c 7.187,15.386 0.541,33.686 -14.842,40.871 -15.385,7.188 -33.684,0.54 -40.871,-14.847 -7.187,-15.382 -0.542,-33.681 14.844,-40.868 15.384,-7.188 33.682,-0.541 40.869,14.844 z" />
        </g>
        <path
           style="fill:#fa4616;stroke-width:5.44368"
           d="m 340.07326,112.81316 c -0.6153,-10e-4 -1.2307,0.01 -1.8457,0.0332 -22.7824,0.39865 -43.2213,19.47592 -45.1758,42.17969 -1.5282,13.43871 3.1697,27.38676 12.4258,37.23242 -10.2141,14.19577 -20.2946,28.78624 -30.5918,42.73633 -7.9902,-2.4658 -16.8788,-1.53582 -24.2618,2.34571 l 15.1231,28.4082 32.0195,2.06836 c 0.3686,-7.20552 -1.544,-14.53946 -5.7558,-20.4336 10.2877,-14.45377 20.5754,-28.90754 30.8632,-43.36132 21.7785,9.07621 49.1162,-1.42589 59.2754,-22.69727 10.8914,-20.47278 3.5998,-48.14433 -15.9687,-60.58789 -7.6799,-5.12385 -16.8789,-7.90494 -26.1074,-7.92383 z"
           id="path5021-5"
           inkscape:connector-curvature="0" />
        <path
           style="fill:#ffffff;stroke-width:5.44368"
           d="m 339.08176,129.45731 c -16.9965,0.15609 -31.4137,16.48895 -29.4871,33.36806 1.0022,16.95947 18.0221,30.53492 34.7754,27.78471 16.8887,-1.84161 29.6192,-19.50743 26.0384,-36.10748 -2.5493,-14.69803 -16.4292,-25.78047 -31.3267,-25.04529 z m 1.3669,8.82302 c 14.5645,-0.43974 25.8164,15.90036 20.3232,29.3386 -4.4055,13.82512 -23.5409,19.1771 -34.4364,9.47169 -10.8819,-8.31523 -10.4768,-26.69312 0.8209,-34.49865 3.8056,-2.83079 8.5464,-4.3845 13.2923,-4.31164 z"
           id="path5025-7"
           inkscape:connector-curvature="0" />
        <g
           style="stroke-width:5.44368"
           id="g5161-4"
           transform="matrix(1.0064043,0,0,1.0064043,-1823.1988,-46.8239)">
          <circle
             r="6.1569443"
             cy="409.93195"
             cx="2108.3779"
             id="path5145-1"
             style="color:#000000;clip-rule:nonzero;display:inline;overflow:visible;visibility:visible;opacity:1;isolation:auto;mix-blend-mode:normal;color-interpolation:sRGB;color-interpolation-filters:linearRGB;solid-color:#000000;solid-opacity:1;fill:#ffffff;fill-opacity:1;fill-rule:nonzero;stroke:none;stroke-width:5.44368;stroke-linecap:butt;stroke-linejoin:miter;stroke-miterlimit:4;stroke-dasharray:none;stroke-dashoffset:0;stroke-opacity:1;color-rendering:auto;image-rendering:auto;shape-rendering:auto;text-rendering:auto;enable-background:accumulate" />
          <circle
             style="color:#000000;clip-rule:nonzero;display:inline;overflow:visible;visibility:visible;opacity:1;isolation:auto;mix-blend-mode:normal;color-interpolation:sRGB;color-interpolation-filters:linearRGB;solid-color:#000000;solid-opacity:1;fill:#ffffff;fill-opacity:1;fill-rule:nonzero;stroke:none;stroke-width:5.44368;stroke-linecap:butt;stroke-linejoin:miter;stroke-miterlimit:4;stroke-dasharray:none;stroke-dashoffset:0;stroke-opacity:1;color-rendering:auto;image-rendering:auto;shape-rendering:auto;text-rendering:auto;enable-background:accumulate"
             id="circle5147-2"
             cx="2108.9785"
             cy="429.90448"
             r="6.1569443" />
          <circle
             r="6.1569443"
             cy="443.72006"
             cx="2123.6951"
             id="circle5149-2"
             style="color:#000000;clip-rule:nonzero;display:inline;overflow:visible;visibility:visible;opacity:1;isolation:auto;mix-blend-mode:normal;color-interpolation:sRGB;color-interpolation-filters:linearRGB;solid-color:#000000;solid-opacity:1;fill:#ffffff;fill-opacity:1;fill-rule:nonzero;stroke:none;stroke-width:5.44368;stroke-linecap:butt;stroke-linejoin:miter;stroke-miterlimit:4;stroke-dasharray:none;stroke-dashoffset:0;stroke-opacity:1;color-rendering:auto;image-rendering:auto;shape-rendering:auto;text-rendering:auto;enable-background:accumulate" />
          <circle
             style="color:#000000;clip-rule:nonzero;display:inline;overflow:visible;visibility:visible;opacity:1;isolation:auto;mix-blend-mode:normal;color-interpolation:sRGB;color-interpolation-filters:linearRGB;solid-color:#000000;solid-opacity:1;fill:#ffffff;fill-opacity:1;fill-rule:nonzero;stroke:none;stroke-width:5.44368;stroke-linecap:butt;stroke-linejoin:miter;stroke-miterlimit:4;stroke-dasharray:none;stroke-dashoffset:0;stroke-opacity:1;color-rendering:auto;image-rendering:auto;shape-rendering:auto;text-rendering:auto;enable-background:accumulate"
             id="circle5151-1"
             cx="2143.6675"
             cy="442.96921"
             r="6.1569443" />
          <circle
             r="6.1569443"
             cy="428.40277"
             cx="2157.1826"
             id="circle5153-6"
             style="color:#000000;clip-rule:nonzero;display:inline;overflow:visible;visibility:visible;opacity:1;isolation:auto;mix-blend-mode:normal;color-interpolation:sRGB;color-interpolation-filters:linearRGB;solid-color:#000000;solid-opacity:1;fill:#ffffff;fill-opacity:1;fill-rule:nonzero;stroke:none;stroke-width:5.44368;stroke-linecap:butt;stroke-linejoin:miter;stroke-miterlimit:4;stroke-dasharray:none;stroke-dashoffset:0;stroke-opacity:1;color-rendering:auto;image-rendering:auto;shape-rendering:auto;text-rendering:auto;enable-background:accumulate" />
          <circle
             style="color:#000000;clip-rule:nonzero;display:inline;overflow:visible;visibility:visible;opacity:1;isolation:auto;mix-blend-mode:normal;color-interpolation:sRGB;color-interpolation-filters:linearRGB;solid-color:#000000;solid-opacity:1;fill:#ffffff;fill-opacity:1;fill-rule:nonzero;stroke:none;stroke-width:5.44368;stroke-linecap:butt;stroke-linejoin:miter;stroke-miterlimit:4;stroke-dasharray:none;stroke-dashoffset:0;stroke-opacity:1;color-rendering:auto;image-rendering:auto;shape-rendering:auto;text-rendering:auto;enable-background:accumulate"
             id="circle5155-2"
             cx="2156.582"
             cy="408.58041"
             r="6.1569443" />
          <circle
             r="6.1569443"
             cy="394.91501"
             cx="2142.3159"
             id="circle5157-0"
             style="color:#000000;clip-rule:nonzero;display:inline;overflow:visible;visibility:visible;opacity:1;isolation:auto;mix-blend-mode:normal;color-interpolation:sRGB;color-interpolation-filters:linearRGB;solid-color:#000000;solid-opacity:1;fill:#ffffff;fill-opacity:1;fill-rule:nonzero;stroke:none;stroke-width:5.44368;stroke-linecap:butt;stroke-linejoin:miter;stroke-miterlimit:4;stroke-dasharray:none;stroke-dashoffset:0;stroke-opacity:1;color-rendering:auto;image-rendering:auto;shape-rendering:auto;text-rendering:auto;enable-background:accumulate" />
          <circle
             style="color:#000000;clip-rule:nonzero;display:inline;overflow:visible;visibility:visible;opacity:1;isolation:auto;mix-blend-mode:normal;color-interpolation:sRGB;color-interpolation-filters:linearRGB;solid-color:#000000;solid-opacity:1;fill:#ffffff;fill-opacity:1;fill-rule:nonzero;stroke:none;stroke-width:5.44368;stroke-linecap:butt;stroke-linejoin:miter;stroke-miterlimit:4;stroke-dasharray:none;stroke-dashoffset:0;stroke-opacity:1;color-rendering:auto;image-rendering:auto;shape-rendering:auto;text-rendering:auto;enable-background:accumulate"
             id="circle5159-2"
             cx="2122.3435"
             cy="395.21533"
             r="6.1569443" />
        </g>
      </g>
    </g>
  </g>
</svg>
